Gender,marital_status,weight,calories_scone,waffle_calories,calories_chicken,turkey_calories,tortilla_calories,breakfast,coffee,drink,fries,soup,on_off_campus,sports,vitamins,type_sports,food_childhood,diet_current,ideal_diet,eating_changes,comfort_food,comfort_food_reasons,meals_dinner_friend,healthy_meal,fav_cuisine
2,1,187,315,1315,430,345,1165,1,1,1,2,1,1,1,1,car racing,rice  and chicken,eat good and exercise,being healthy,eat faster,none,we dont have comfort,"rice, chicken,  soup",looks not oily,Arabic cuisine
1,2,155,420,900,610,690,725,1,2,2,1,1,1,1,2,Basketball,"chicken and biscuits, beef soup, baked beans",I eat about three times a day with some snacks. I try to eat healthy but it doesn't always work out that- sometimes eat fast food and mainly eat at Laker/ Egan,"Try to eat 5-6 small meals a day. While trying to properly distribute carbs, protein, fruits, veggies, and dairy.  ",I eat out more than usual.,"chocolate, chips, ice cream","Stress, bored, anger","Pasta, steak, chicken ","Grains, Veggies, (more of grains and veggies), small protein and fruit with dairy ",Italian
1,2,I'm not answering this.,420,900,720,500,1165,1,2,1,1,1,2,2,1,none,"mac and cheese, pizza, tacos","toast and fruit for breakfast, salad for lunch, usually grilled chicken and veggies (or some variation) for dinner",i would say my ideal diet is my current diet,sometimes choosing to eat fast food instead of cooking simply for convenience,"frozen yogurt, pizza, fast food","stress, sadness","chicken and rice with veggies, pasta, some kind of healthy recipe",usually includes natural ingredients; nonprocessed food,italian
1,2,"Not sure, 240",420,1315,430,690,725,1,2,2,2,1,1,2,1,nan,"Beef stroganoff, tacos, pizza","College diet, cheap and easy foods most nights. Weekends traditionally, cook better homemade meals  ","Healthy, fresh veggies/fruits & organic foods ",Accepting cheap and premade/store bought foods,"Pizza, Mac and cheese, ice cream",Boredom,"Grilled chicken 
Stuffed Shells
Homemade Chili","Fresh fruits& vegetables, organic meats ",Turkish
1,1,190,420,760,720,500,940,1,2,2,1,1,1,1,2,Softball,"Pasta, chicken tender, pizza ",I try to eat healthy but often struggle because of living on campus. I still try to keep the choices I do make balanced with fruits and vegetables and limit the sweats.,Ideally I would like to be able to eat healthier foods in order to loose weight.,I have eaten generally the same foods but I do find myself eating the same food frequently due to what I have found I like from egan and the laker.,"Ice cream, chocolate, chips ","Stress, boredom, cravings ","Chicken Parmesan, Pulled Pork, Spaghetti and meatballs ","A lean protein such as grilled chicken, green vegetables and  brown rice or other whole grain ",Italian
1,2,190,980,1315,610,345,940,1,2,2,1,1,1,2,2,None.,"Fries, plaintain & fried fish",My current diet is terrible. I barely have time to eat a meal in a day. When i do eat it's mostly not healthy.,My ideal diet is to eat 3 times a day including breakfast on time. Eat healthy food.,Eating rice everyday. Eating less homemade food.,"Candy, brownies and soda.","None, i don't eat comfort food. I just eat when i'm hungry.",Anything they'd want. I'd ask them before hand what they want to eat and it depends on which type of friend is coming.,"Requires veggies, fruits and a cooked meal. ",African
2,1,180,420,1315,610,690,940,1,2,1,1,1,2,1,1,soccer,"grilled chicken, hamburgers","I eat a lot of chicken and broccoli for dinner, and usually tuna sandwiches for lunch.","I would ideally like to eat more fresh fruits and vegetables. However, its difficult to get to the store all the time to buy fresh.",I started eating a lot less and healthier because I wasn't playing sports year round anymore.,"Chocolate, ice cream, french fries, pretzels","stress, boredom","Grilled chicken, steak, pizza","Protein, vegetables, fruit, and some carbs",Thai
1,1,137,420,1315,720,500,725,1,1,2,1,1,1,2,2,none,"chicken, cheesey potatoes, and hot dogs","I eat a very healthy diet. Ocassionally, i will eat out and get unhealthy food.",My ideal diet is filled with a lot of fruit and chicken. I also really enjoy eggs any type of way with toast.,"Freshmen year i ate very unhealthy, but now it is much healthier because of self control.","Ice cream, cheeseburgers, chips.","I eat comfort food when im stressed out from school(finals week), when I`m sad, or when i am dealing with personal family issues.","chicken, steak, pasta ",A healthy meal has a piece of meat followed by a lot of fruit and veggies,Anything american style.
1,2,180,420,760,430,345,725,1,1,1,1,2,1,2,2,none,"Shrimp, spaghetti",I eat whatever I want in moderation.,The same as it is now.,I snack less,"Donuts, ice cream, chips",Boredom,"Pasta, Fish, Steak",Colorful,Seafood
1,2,125,315,900,430,345,580,1,2,1,1,1,1,1,1,field hockey,"Pasta, Eggs, Pancakes ","I eat healthy all the time when possible. I treat myself occasionally. I don't really like the greasy meals, if anything I would eat sweets over the greasy meals.  ","Lots of protein, carbs, and fruits and veggies. ",I cook a lot of my own foods back at home so not being able to cook my own healthy choices. I eat more carbs than normal when I'm at college due to the choices given in the cafe.,"Mac and cheese, chocolate, and pasta ","Stress, anger and sadness ",pasta salad and bread,Chicken and rice with a side of veggies.,Italian
1,1,116,980,900,610,345,940,1,2,2,1,1,3,1,2,soccer,Chicken,i eat very healthy. Maybe eat out 1-2 times a week.,"Chicken, fish ",Nun,"Pasta, grandma homemade chocolate cake anything homemade ",Boredom,"chicken al king, spaghetti, fish","Chicken, and veggies ",Orange chicken and chow mani noodles
1,2,110,420,900,720,500,940,1,2,1,1,1,1,1,1,Running,Scalloped potatoes and ham,"I am very health concious. I eat many fruits, veggies, and protiens. ",More healthy varienty.,Less meat.,"chocolate, pasta, soup, chips, popcorn","sadness, stress, cold weather","Chicken parm, Fish, Pasta dishes ","lean protein, veggies, fruit, complex carbs",Italian
2,2,264,420,575,430,500,940,1,2,2,1,2,1,1,2,Soccer and basketball,"Pizza, chicken wings, and corn on the cob ",I focus mostly on proteins and fruits. I eat a lot less vegetables and a few carbohydrates.,My ideal diet would be the proper portions of all food categories. I would also like to eat proteins around my workouts and avoid all deserts.,I have been eating a lot more salads and soups.,"Cookies, popcorn, and chips","Sadness, boredom, late night snack ","Cereal, pizza, toast ",A salad with a reasonable amount of dressing and a meat.,Chinese
1,2,123,420,1315,610,850,1165,1,2,2,1,1,2,1,2,intramural volleyball,"steak, lasagna, crab",Not as healthy when I am at school compared to home. Still very aware of the nutrition I am taking in.,organic/healthy. fruits and vegetables but still protein to give sustainance.,not as healthy because healthy food goes bad quickly and it is expensive,"ice cream, cake, chocolate","stress,  boredom, special occasions","pasta, chicken, steak",Lots of vegetabls with some grains like rice. Also has lean meat such as fish or chicken.,italian
2,1,185,420,900,610,500,940,1,2,2,1,1,2,1,1,Hockey,Pizza,"Making sure I have enough protein intake, as well with fibre, vitamins and carbs. ","Eat a little less than I usually do, and intaking more protein. ","I knew I would eat alot my freshmen year, before coming to college i had a diet plan. ","Pizza, fruit, spaghetti, chicken and Potatoes  ","Friends, environment and boredom","Pizza, chicken and rice, roast beef.",Green and not greasy,Chinese
2,2,180,980,1315,430,345,940,2,2,2,1,2,1,1,2,Hockey,pizza,I like a lot of foods that arent home cooked or healthy for you.,I wish I ate lots of healthy foods like veggies and salads.,none,"cookies, donuts, candy bars",boredom,pizza buffalo chicken pasta,"chicken, veggies, rice",italian food
1,2,145,420,760,265,345,580,1,1,1,1,1,1,2,1,nan,"Curry, Stew Chicken and Saltfish",I eat very healthy,Vegetables and Fruits with Meat,More Water,"Saltfish, Candy and Kit Kat ",Stress,"Curry goat, saltfish, jerk chicken ","Not too much carbs, a lot of protein, healthy fats and fruits and vegs ",Jamaican
2,2,170,980,900,430,500,940,1,2,2,1,1,1,1,2,hockey,"chicken fingers, steak, mac and cheese",My current diet is eggs and a meat every morning for breakfast. For lunch ill usually have some pasta or rice with a meat and sometimes a side of veggies. for dinner i usually eat less carbs and more protein and veggies.,"I like how my diet it now. However, after my season i am going to cut back on some carbs because i won't be working out as much.","I would say i just eat a little more, but not in a bad way. I have unlimited swipes at the cafe so instead of snacking on chips before lunch or dinner i will get something from the cafe.","chips, cookies, ice cream","I usually only eat comfort food when I'm bored, if i am doing something, i can go for hours without eating ",Grilled chicken or steak with veggies and rice. or some type of pasta and chicken,"for me usually a big piece of chicken or steak with a side of veggies, and i usually have rice with mine as well",American or Italian
1,2,135,980,1315,720,690,1165,1,1,1,1,2,1,2,1,dancing,Chicken,I eat lots of fruit and veggies. I eat lots of chicken.,Lots of fruit and veggies. Lots of chicken.,I ate at the food hall.,"Chocolate, ice crea ","Sadness, stress","Spaghetti, Chicken, Steak",Everything from food group,Chicken
2,1,165,420,900,430,345,940,1,2,2,1,1,1,nan,2,basketball,manacotti,Current diet right now isn't very good. I eat at the school's cafeteria and they do not have the best choices.,Something that tastes good and also is good for you. This is very hard to find though.,None really,"pizza, wings, Chinese","boredom, sadness, hungry","chicken, manicotti, rice","lots of fruits and vegitibles, not any fried foods",Italian
2,1,175,980,1315,610,850,1165,1,2,2,1,1,1,1,2,Soccer,"pizza, chicken fingers","I eat 2 meals a day, lunch and dinner",3 smaller meals a day,Late night food,"Fast food, pizza, subs","happiness, satisfaction","Chicken, Pasta, Veal","Rice, Meat, vegetable",Mexican
2,2,195,315,900,610,500,725,1,1,nan,1,2,1,1,2,Tennis,Pasta,"Random. Not strict diet, changes during season","Mix of Mexican, Asian, and Italian foods.","Less money, less food :(","chocolate, sweets, ice cream",Mostly boredom,"Meat, wine, chocolate pudding",Green and colourful,Indian
2,1,185,420,1315,610,850,940,1,1,1,2,1,1,1,1,tennis soccer gym,pasta,balanced,"fruit, veg and protien ",got worse,"burgers, chips, cookies","sadness, depression ","pasta, pizza ","pasta. veg, water ",italian
2,1,185,420,1315,610,690,940,2,2,1,1,1,1,1,1,Gaelic Football,Chicken Nuggets,2 meals a day. Rarely eat snacks. Fairly balanced diet.,3 healthy meals a day. No caffiene.,Drink coffee all the time.,"Chilli, soup, pot pie",Stress and boredom,"Pizza, Pasta, Poutine","Protein, vegetables, grains ",Asian
1,2,105,420,1315,720,500,940,1,2,2,1,2,1,2,2,none,Spaghetti,I eat a lot of chicken and try to cook my own meals as much as possible using a lot of rice and vegetables.,I would like to be a person to eat a larger vegetable based diet with little to no processed products in my diet especially sugar and salt.,"I watch the amount of ""snacks"" I eat more than I did in high school.","Soup, pasta, brownies, cake","A long day, not feeling well, winter ","Pasta, chicken and rice, and soup",A healthy meal is a lean meat with mostly vegetables and a starch like brown rice or quinoa.,Chinese
1,1,125,420,760,720,690,1165,2,2,1,1,1,1,1,2,Ice hockey,"Chicken parm, beef stroganof, tacos","vegetarian, eat breakfast some days before class, can eat a lot of junk food so I refrain from allowing myself to buy any","healthy, colorful, tasty, room for desserts","none, I have dormed since high school","chocolate, ice cream/milkshake, cookies",boredom,"Pasta
Take out","good portions, lots of color, targets main food groups",don't have one
2,2,160,420,1315,610,850,1165,1,1,1,1,2,1,1,2,Hockey,"Chicken Parm, Pizza ","Most healthy diet, but since I'm an athlete have room for some bad foods to burn off quickly ","Very healthy diet, and to cook at home with organic foods. ",Tend to eat more fried foods,"Chips, ice cream, microwaveable foods ","Boredom, lazyniss ",Chicken parm,"A rice, a vegetable, a piece of meat ",Italian food
2,2,175,980,1315,610,500,1165,1,2,2,1,1,1,1,1,Lacrosse,Steak,Very healthy. Good balance of proteins and vegetables,My current diet,A lot healthier,"Chicken fingers, pizza ",Boredom,"Steak, lobster, chicken ","Salad, vegetable, carb, protein ",Mexican
2,1,180,420,1315,610,500,940,1,2,1,1,1,1,2,1,nan,"Deer Steak, Buttered Pasta, Garlic Pasta",Whats necessary for survival.,Steak and Burgers,Too much beef jerky,"cookies, hot chocolate, beef jerky","survival, bored","Garlic noodles and steak, Parmesan chicken and pasta, Tacos and pasta","Protein, vegetable and grains",Italian/German
2,1,167,420,760,265,500,580,1,2,2,1,1,1,2,1,nan,"Crab legs, Mushroom soup, homemade rolls",anything and everything,"Heavy in protein, fruits, and vegetables. ",Eating less vegetables because they are less available to me.,"Tomato soup, pizza, Fritos, Meatball sub, Dr. Pepper","Boredom, anger, drunkeness","Tomato soup, Steak, crab","Grilled chicken, mac and cheese, broccoli, apple, milk",Indian food - samosas are amazing
1,2,115,420,1315,720,500,940,1,2,1,1,2,3,1,1,snowboarding,"french fries, waffles, chocolate",I eat some vegetables almost everyday and fruit a couple of times a week. I eat meat a few times a week. I dont eat fast food and try to limit fried food.,I would eat enough fruits and vegetables everyday. I would have home cooked food at least 5 days a week. I wouldnt like sugar so much.,I drink way more coffee and I dont eat at home as often.,"cookies, mac-n-cheese, brownies, french fries, ","stress, boredom, cold weather","pasta, chicken with potatoes, pizza ","whole grain carbs, vegetables, a small amount of protein",mexican
2,1,205,420,1315,610,690,940,1,2,2,1,2,4,2,1,none organized,chicken and biscuits,"Diet consists of 3000-4000 calories a day well rounded from meats, vegetables, and fruit.","diet of 1500-2000 calories of white meat, vegetables, and fruit that are all fresh and not processed",none,"chips and dip, pepsi, ","stres, boredom, and nighttime","Chicken, Steak, Pasta","4-6 ounces chicken or fish, side of potatoes, and green beans",italian
2,1,nan,315,760,610,345,580,1,2,2,1,1,1,1,1,Soccer,"Spaghetti, Chicken, Won Tons","Not that balanced, but I try not to eat fatty or fried foods.","Plenty of protein, carbs from vegetables and fruits, and healthy fats.",I eat more junk food now.,"Grandma's Chinese, Peruvian food from back home, and sushi",Hunger and Boredom,"Pasta,Sushi,Steak",Plenty of greens and lean proteins,Spanish
1,1,128,420,900,720,500,1165,1,1,1,1,1,1,2,1,nan,"Chicken Nuggets, Mac and Cheese, and pasta",I eat a a lot of carbs from pizza and pasta. I also eat a lot of cookies.,my ideal diet would be more fruits and vegetables. Also less desserts.,I eat more junk food,"Ice cream, cookies,  Chinese food, and chicken nuggets ","boredom, sadness, and if it has a good taste. ","Chicken Parmesan, pasta,  ",A balance of vegetables and cooked lean meat.,Italian
1,1,150,420,1315,610,345,940,1,2,1,1,1,1,1,1,softball,"hamburgers, chicken nuggets ",egan dining,healthy and protien,poor,"french fries, chips, ice cream","boredom, stressed, sad","pasta, lasagna, chicken ",a lot of greens,French
1,2,150,420,760,610,690,940,1,2,1,1,1,2,1,2,Lacrosse,"chicken, pasta, stir fry","A lot of rice and veggies, eggs for breakfast, chicken is usually the only kind of meat I eat.",Pretty much what I eat now,My diet is more limited just because of what I have time to make,"mac n cheese, peanut butter and banana sandwich, omelet",Boredom usually,"Some kind of pasta, a chicken dish, some kind of salad","Some kind of protein, a vegetable, and a grain",American or Italian
1,1,150,420,900,610,500,1165,1,2,2,1,2,1,1,2,Softball,"pizza, pasta, grilled cheese ","I eat out more often then not. I try to make sure when I eat out it isn't fast food, but instead something healthy like Panera. ",I wish I had the time and energy to cook more at home on my own.,I do not snack as often at school. I find that I'm always busy so sometimes I don't have a lot of time to eat.,"pizza, doughnuts, mcdonalds ",boredom,"spaghetti or pasta, shrimp fried rice, chicken ","a meal with a meat, vegetable, grain, and fruit ",Italian or Chinese
1,2,170,420,1315,720,500,940,1,2,2,1,1,1,1,2,Dancing,Pasta,"I do not get to eat as well as I did.  I wish I ate better, but in college it is hard because of money.",I would like to get all of the food groups in each day.,I do not eat as many home cooked meals.,"chocolate, chips, candy",Stress,"Pasta, Pizza, Chicken ","A protein, starch, veg, and a healthier dessert. ",Italian
1,2,150,980,1315,610,690,1165,1,2,1,1,1,1,1,2,Lacrosse,chicken parmesan,I eat three meals per day usually. I eat a lot of sandwiches and fruit.,My ideal diet would be eating multiple fruits and vegetables at each meal. Also I would only eat lean protein if possible.,I have eaten bigger meals.,"chocolate, popcorn, ice cream","boredom, stress","Chicken Parmesan, Orange Chicken, Tacos",a lean protein plus the addition of 2-3 fruits and vegetables,italian
2,2,175,980,1315,720,690,1165,1,2,2,1,1,2,1,2,Hockey,Chicken and steak,Unhealthy foods from the cafe,"Red and white meats, potatoes, green beans ",I eat more,"Candy
Pop
Chocolate 
Chipotle 
Moe's ",No reasons,"Steak and potatoes, burgers and fries, bacon and eggs ",Chicken breast with veggies,Mexican
2,1,140,315,760,430,500,940,1,1,2,1,1,1,1,2,wrestling,"pizza, ice cream. pop tarts ","I will eat a full bleakest every morning consisting of eggs, potatoes, and a type of meat with juice. I will have a sandwich or something light for lunch. For dinner I will have meat and vegetables of some sort.  ",Idealy I would have basically the same breakfast as I do now just with more fruits. For lunch I would have more vegetables and fruits. For dinner I would have the same.,I eat pretty much the same as I use too. I do have more sweets now though.,"Pizza, Ice cream, fries, cereal, cookies  ",Usually if I'm sad or depressed.,"Pizza, Japanize Hibachi, Moes   ",A meal with all of the food groups.,Italian
1,1,120,980,1315,720,690,940,1,2,1,1,1,1,2,1,nan,Mac cheese,I eat food,I to eat enough food to sustain me throughout the entire day,I do not make my own food very much,"Ice cream, chocolate, twizzlers ",Tired,"Chicken, Pasta, Salad",a salad with chicken and 2 tablespoons of salad dressing,Italian
1,1,135,420,900,610,500,940,1,2,2,1,1,1,2,2,nan,"French Toast, Grilled Cheese, Orange Chicken","Light breakfast, yogurt or grandola bar. No luch but (healthy) snacks throughout this time period until dinner. Full dinner with meat, vegetables and fruit.",Same as above but with a more concrete lunch. Cut down on excessive snacking.,I do not make my own food,"ice cream, cookie dough, cookies, cheese","Boredom!, sadness","Pancakes, Pasta, Grilled Cheese and Soup","Grilled chicken, side salad, rice and broccoli and cranberries",Italian
1,2,100,980,900,430,345,940,1,1,1,1,2,nan,2,1,no particular engagement,"pickles, chinese food, pizza","It needs some re-structuring. Mostly, I eat well but I would like to improve on my water, fruit and veggie consumption. ","My ideal diet involves organic foods, more nuts, fruits, veggies and water and a complete absence of processed foods, genetically enhanced foods or fast foods. My ideal diet would be one that involves foods that are grown by me or close to me and one that is essentially best for my health.","Now I prepare my own meals, pack my lunch every day and avoid eating out to save money as much as possible.","ice cream, cereal, and salt and vinegar chips ","All of the above; sadness, boredom and confusion ","pasta, soup, steak  ",It is probably more on the green side and there is less fryed or overly seasoned food. There would be more organic foods rather than processed foods.,chinese
1,1,170,420,760,610,500,725,1,2,1,1,1,2,1,1,Volleyball,"Mac and Cheese, Hot Dogs, Grilled Cheese","I am on a very balanced diet, eating 4-5 small meals a day filled with fruits, vegetables, lean meat, and good carbs. ","My ideal diet would be to be a vegetarian; however, considering my highly active lifestyle island strength requirement I need as much ""real"" protein I can get. ","I haven't changed much. If anything, I have become more disciplined. ","Potato chips, ice cream, chocolate, cookies","Stress, boredom, craving","Steak, asparagus and potatoes, homemade chicken alfredo, Mexican cuisine",Mostly green!,Thai food
1,2,113,315,900,610,500,940,1,2,1,1,1,1,2,2,none,"Hamloaf, tuna fish salad, mac and cheese ","Healthy, includes many fruits and vegetables. Probably too many carbs. ","The same as my current diet, maybe less carbs. ",I eat smaller portions more often,"Mac and cheese, fried chicken, cornbread ","Hunger, boredom","Tacos, spaghetti, grilled cheese",Colorful,Greek
2,1,168,420,900,430,345,725,1,1,2,1,1,1,1,2,soccer,"chicken soup,  perogies, & roast beef  ",At school I eat a lot of pizza or burgers with fries. Occasionally I try to have a salad or a fruit juice with this. I also try to eat more of a home cooked meal with vegetables.,More of a home cooked meal that is not very greasy. Also includes more fruits and vegetables.,Eating more pizza and burgers or fast food.,"popcorn, chips, candy, & fries ","sadness, boredom, & anger ","Spaghetti, steak, burgers ",A meal that you have cooked yourself without a lot of grease or fat in it.,Italian
2,1,145,980,900,430,345,940,1,2,1,1,1,1,1,2,wrestling & rowing,"lasagna, meatloaf, pizza",lots of pasta and carbs along with lean meats. Also at time some soda and junk food,To cut out the junk food and eat more meat and less pasta. Also eat more fruits and vegetables,Cereal became an anytime of day food,"Chex-mix, Wegmans cookies, Cheez-Its ","Boredom, happiness, distraught ","lasagna,  hamburgers w/ corn, steak  ","good balance between meats, grains, fruits, vegetables, carbs, and dairy products ",Italian
2,1,155,315,760,430,345,940,2,1,2,1,2,1,1,1,Wrestling,"Tacos, Spaghetti, and Roast","My current diet consists of cafeteria food, which isn't necessarily ideal. I try to eat as healthy as possible but I find myself turning to unhealthy food more often than healthy.",One that consists of a lot of mean and also fruits and vegetables. Drink a lot of water as well.,Transitioning from home-cooked meals to cafeteria food,"pizza, ice cream, chips","stressed, upset, or just craving a cheat meal","Steak, Chicken, Tacos",one that is well balanced and consists on main food groups,Asian
2,2,150,315,900,430,690,1165,1,2,1,1,2,1,2,2,none,"mac and cheease, mashed potatoes, salmon",I eat alot carbs. Protein (meat) is beautiful.,I would eat more veggies with a equal balance of carbs and protein. More international flavors would be great.,I definitely eat less veggies.,"fried chicken. mashed potatoes, mac and cheese",They taste better than other food. They are a pickme up. They are easy to make,"pizza, pasta, burgers",lots of green and color.,Italian
2,1,169,420,760,720,500,1165,1,2,1,1,1,3,2,2,nan,Pizza,Healthier than most but not 100% clean.,"No artificial sugars, only natural foods.",I have started eating a lot healthier.,"Popcorn, Chex Mix, Pizza","Stress, boredom","Pizza, salad","Balance of veggies, white meat, fruits, and grains.",American
2,1,185,980,1315,610,500,1165,1,1,1,1,1,1,1,1,Hockey,Steak,Great,Organic,Mediocre,Burger,Lazy,"Steak, Chicken, Pasta ",Chicken,All
2,1,200,420,900,610,500,1165,1,2,1,1,2,1,1,2,Lacrosse,"Grilled chicken, pasta, and turkey ",My diet is mostly chicken rice and veggies. I mix in fruit between workouts and snacks like power bars and what not.,One that maintains my goal weight. But also produces enough daily energy.,I eat very bad on the weekends.,"Pizza, chocolate, and ice cream ","Boredom, sadness and anger ",Chicken Parm,Low carbs and high protein,Mexican
2,1,265,980,1315,610,500,940,1,2,2,1,1,3,2,1,nan,"Chicken, Pizza, Cherry tomatoes",65 and out,Blend of instant gratification and healthy choices sourced sustainably,nan,"fries, chips, fried chicken, pizza, grapes","Boredom, sadness","Pizza, Steak, Spaghetti","Grilled, natural ingredients, and no carbonated beverages",Sub sandwhiches
2,1,165,420,900,610,690,940,1,2,1,2,1,1,1,1,hockey,Chicken Alfredo,Very healthy and clean. A lot of protein and vegetables,Clean diet. High protein intake.,I eat a lot more healthier,"peanut butter sandwich, pretzals, garlic bread","stress, anger and boredom","Chicken, Steak, Pasta",High protein and vegetables,Italian
1,1,192,315,900,610,500,940,2,2,2,1,1,1,1,2,softball,steak and cheesy potatoes,What ever the dinning hall is serving. When i am hungry i look for something filling more then healthy.,My ideal diet is to eat less fast food in a week. Also to add something healthy like salad  to every meal or to have a salad for a meal.,when i eat has changed alot. I have to eat at a certain time everyday or the dining hall wont have food.,"chips, dip, fries, pizza","bored, stress","mac n cheese, steak, potatos","the different colors of the rain bow. protein, fruit, veggies",italian
2,1,175,315,1315,720,500,1165,1,2,1,1,1,2,1,1,Hockey,Meatloaf,I usually eat very healthy. I incorporate fresh fruits and vegetables into every meal.,My ideal diet is to cut back on my meat intake and substitute it for other protein sources such as fish or tuna.,I have begun to eat more fruits and vegetables because I have been more aware of my physique.,"Pizza, Ice Cream, Chicken Wings",I usually only eat comfort foods when I am bored. I will also eat them when I am happy to celebrate and then when I am sad to comfort me.,"Chicken, Beef, Steak",Low protein and carbs and high in vegetables and fruits.,Thai
1,1,140,980,1315,610,345,725,1,2,1,2,2,1,1,1,softball,Pizza pasta and quesadillas,I eat very heathy on a daily basis,"Fruits and vegetables, wheat bread, peanut butter, protein bars, protein shakes ",Really paid more attention to what I eat cause it is easy to gain,Pizza chocolate chips bagels ice Capps,Just cause,"chicken, pizza, stuffed shells",Chicken and broccoli,Wraps
1,1,155,420,1315,610,690,1165,1,2,2,2,1,2,1,1,Skiing,Steak,"For breakfast I have oatmeal. For lunch I have a sandwich and fruit. For dinner I usually have a piece of meat, rice or pasta, and a vegetable. ",Ideally my diet would be similar to what I eat now. If I wasn't on a college budget I could spend more money on nicer meat and vegetables which would make my meals a lot better.,More easy meals like pasta.,"Chocolate, ice cream, pasta","Stress, boredom, sadness","steak, noodles, edemame","Fruit, vegetables, and protien",Mexican
1,1,155,420,1315,610,500,1165,1,2,2,1,2,2,1,2,skiing,Mac and cheese,Simple breakfast of cereal or yogurt. Lunch is something like a deli meat sandwich. Dinner is a full meal. Veggies meat and starch.,Less cheese than I eat.,More snacking,Mac n Cheese. Chips and salsa. Ice cream.,Boredom. Celebration.,Steak and veggies. Chicken and rice. Stirfry.,Proper serving sizes of almost anything,Italian
1,1,135,420,1315,610,690,1165,1,2,2,1,1,1,1,1,Water polo and running,lasagna,"My diet consists of fruits, vegetables, grains, dairy, and proteins.",The way I eat now I think is pretty good.,At first I ate less but now that I'm in season playing a sport I eat more.,"peanut butter, dessets, pretzels. ","Sadness, boredom, lonely.","Lasagna, steak, chili ",Half the plate fruit and vegetables. Other half grains and protein. Then a little dairy.,Mexican
1,2,118,980,1315,610,500,725,1,2,1,2,2,3,2,1,nan,Chocolate,"My diet is pretty healthy and consists of chicken, turcky, and veggies. I rarely eat unhealthy food or fast food.","My ideal diet would be to add more fruits and veggies. Also, to go to the gym more but school gets in the way. ","I have gotten healthier with my eating habits. As a result my parents starting eating healthier too, even though I do not live with them.","Macaroons, truffles, peanut butter n chocolate ice cream","I do not really eat ""comfort food"" but I guess sadness, special occasions, and anxiety ","I would say ""lets go out""","chicken, veggies, fruit, water ",Mexican
2,1,210,980,1315,610,850,1165,1,2,1,1,1,1,1,1,Ice Hockey,"Pizza, Pasta, Chicken",I try to eat as healthy as possible. 3 meals a day that are well-balanced.,"High protein, low fat",As an athlete it is important to fuel my body with important foods only.,"ice cream, cookies, ice cream","boredom, sadness","pasta, chicken, vegetables","high protein, low fat, low carbs and sugar",Italian
1,2,180,980,1315,610,690,1165,1,2,nan,1,nan,1,1,2,rowing,"chicken tenders, pasta, mac&cheese ","High in protein, fruits, and veggies. Low in fats.",My ideal diet is my diet.,nan,"carrots and ranch, pretzels, dark chocolate ",sadness,"chicken and pasta, homemade pizza, lasagna ","high protein, fruit, veggies, low carbs and fat",Italian
1,2,140,420,760,610,500,940,1,1,1,1,2,1,1,1,Volleyball,"chicken stir fry, spaghetti, chicken parmesan ","I eat fruit and vetagables with every meal. I only drink water, no soda. I tend to stay away from greasy food. ","I want to eliminate all the junk food I ate. Besides that, I want to keep my diet the same. ","I ate more junk food, but also more fruit. ","cookies, nutella, ice cream, coffee, fruit ","Bordem, happiness, sadness",1. pasta 2. spaghetti 3. chicken and rice,Meal prep'd foods with food from each section on the food pyramid.,Chinese cuisine (General Tso's)
1,2,112,315,900,610,500,725,1,2,1,1,1,1,2,2,None,"Mac and Cheese, Chicken nuggets","I don't follow a diet, I eat whatever I want","No, diet","I snack more, having fewer full meals",mac and cheese,boredom,"Lasagna, Steak, Pasta ",vegtables,Italian
1,2,125,420,900,720,500,940,1,1,2,1,1,1,1,1,tennis,Mac and cheese,"My current diet usually includes at least one serving of vegetables per day, and I usually am eating fruits and whole grain things. ",My ideal diet is my mom's home cooking. It's always healthy and organic.,"I eat more fried food, such as french fries.","Chocolate, Popcorn, Icecream",sadness,"mac and cheese, pizza, chicken ","Milk for a drink, meat, a grain, vegetable, fruit for dinner",American
1,2,144 lbs,420,1315,610,690,940,1,1,2,1,1,1,1,2,"Recreational Basketball, Equestrian Team","Mac&Cheese, Chicken Nuggets ",I typically try to eat healthy but being away at school makes it harder. I try to avoid junk food as well and trying to only eat it on the weekends.,I would like to get more protein in me. I would also like to eat healthier more consistently rather than here and there.,I eat a lot less than I did at home but find myself snacking more than actual meals.,"Ice cream, cake, mozzarella sticks, pierogies ",Boredom,"Lasagna, Pizza, Pasta ","It has protein, vegetables and some carbs ",Italian
1,2,145,315,760,430,500,725,1,1,2,1,1,1,1,2,soccer,"Pasta, pizza, meatballs ",My current diet is balanced and includes food from all the food groups.,My ideal diet is a diet that makes me feel good but also allows me to eat junk food once in a while.,I don't eat as healthy because there aren't as many healthy options at the dinning hall.,"Chips, Mac and cheese, pizza, French fries ","Stress, sadness, bored ","pasta, chicken parm, tacos ","Balanced between protein, veggies, and carbs",Italian
1,2,130,420,1315,720,690,1165,2,2,2,1,2,2,2,1,None,"Steak, Garlic and butter noodles, schnitzle",I am not vegetarian. I love red meat like steak and salami. I try to limit the amount of carbs I eat,My ideal diet would be cutting out red meats and sticking to leaner meats like turkey or chicken. Also keeping refined carbs out of my diet would be ideal.,Freshman year I did not watch my diet at all and really let myself go. I ate pizza and fries for almost every meal. Summer following freshman year I knew I needed to stop doing that so I cut out as many refined carbs as I could and try to eat healthier portions.,"Pizza, burritos, slim jims","Boredom, stress, and it tastes good","Steak, pasta, burgers","Well portioned meat, veggies, and fruits. Water instead of a sugary drink like pop. ",Italian
1,2,140,980,1315,610,500,1165,1,2,1,2,1,1,1,1,Rec Volleyball,Pizza and Spaghetti,Healthy and light,Healthy and light,I don't eat as often,"Broccoli, spaghetti squash, quinoa, and grilled chicken","Bad day, bored, sadness","Pizza, Italian, anything chicken related","A vegetable, a protein, and a fruit",Italian
1,2,140,420,1315,720,690,1165,1,2,1,2,1,1,1,1,Softball,Spaghetti,"My meals consist of a vegetable, a meat and usually a carbohydrate. I eat a lot of fruit and snack in between meals on little things.","I would like to eat less carbohydrates, such as pasta and breads. I wish I knew how to incorporate healthier alternatives to the foods I eat.",I tend to snack more and have smaller meals.,"Chocolate, ice cream, cookie dough","Boredom, being in your period, and long bus rides for softball","Spaghetti, steak, or chicken","A balanced meal with a protein, carbohydrate and a vegetable.",Italian
2,1,140,980,1315,610,345,1165,2,2,2,1,1,1,2,1,nan,Pizza Mac n Cheese Pasta,I eat somewhat healthy. The food at egan is not the best.,I would like to consume a lot more meat and protein. I want to consume more fruit.,I eat a lot less and more junk food.,"pizza, pretzels, fruit snacks, deli sandwhich","boredom, anger, happy","Pasta, Steak, Chicken",salad,Lean
2,2,200,420,1315,720,850,1165,1,2,2,1,1,3,1,1,baseball,Pizza,I have a diet of meats and other high protein foods.,A balanced diet with each food group. Getting enough protein and carbohydrates.,I stopped drinking soda and only drink water now,"Chips, ice cream","Boredom, stress","chipotle, chick fil a, chicken and rice","Protein source, vegetables, fruits, whole grains",Mexican
2,4,nan,420,760,265,345,580,2,1,2,1,1,2,2,2,nan,nan,nan,nan,nan,nan,nan,"rice and Chicken, sea food",nan,nan
1,2,120,420,900,610,500,940,1,2,1,1,1,1,2,1,I danced in high school,"salad, chicken, pizza",I normally eat a salad every day. I try to get at least every food group into my diet,Eating all fruits and vegetables. Staying away from all the unhealthy foods.,I do not eat as many fruits and vegetables as I normally would as being home even though i do eat them still,"mac and cheese, potato soup, ice cream, chips and cheese","sadness, stressed, boredom","Chicken, Spaghetti, Hamburgers","grilled meat, fruit, vegetable, and some grains",italian
1,1,150,420,1315,610,690,1165,2,1,2,1,2,2,1,2,horse back riding,"pizza, mashed potatoes, chocolate chip cookies",Current diet is rather poor.  I eat a lot of chicken and carbs.  I also tend to eat a lot of desserts.,"My idea diet would consist of eating more balanced diet consisting of fruits, vegetables, and meat.  I would like to not eat so much unhealthy junk food/desserts.","I eat less healthy breakfast now, usually just grab something quick like a granola bar.","chocolate, pizza, and mashed potatoes",boredom and stress,"chicken, steak, pizza",a plate that has a variety of colors not just one color,american
2,2,200,420,900,265,345,725,2,1,2,1,2,1,1,2,Basketball,Pizza and wings,Meat carbs and candy,Meat carbs and candy,Expansion of eating variety,Pizza cookies steak,Boredom comfort hunger,"Steak, Pizza, Haddock ",Meat and potatoes,American
1,2,135,420,1315,720,345,580,1,2,1,2,1,1,1,1,competitive skiing,"tacos, pizza, chicken wing dip","At school its hard but usually a granola bar and fruit for breakfast, a wrap for dinner or lunch, and then veggies and hummus.",To eat moderations of every food group each day and no processed food,not going to Egan every meal maybe once a day,"chocolate, fruit, and ice cream","stress, boredom","mexican chicken, hibachi chicken and rice, steak","good portions of fruit, protein, veggies and carbs",Japanese
2,1,145,420,1315,720,850,1165,1,2,2,1,1,1,1,2,"Rowing, Running, and Cycling",Sloppy joes,No diet. I eat what makes me feel good,Whatever makes me feel good. Doesnt cost a fortune.,More coffee less water,Chips sweets popcorn,Boredom,"Chicken and vegetables, Roast Beef, pasta",All food groups,Chinese
1,1,130,420,900,430,500,1165,1,2,2,1,1,1,2,1,nan,"Spaghetti and Meatballs, Steak, and Burgers",If there is berries I will eat them.  Eat any kind of pasta.  Hate cooked vegetables,More fruits and Veggies.  Less carbs,Less fruits and veggies,"Cookies, burgers, chicken noodle soup, ice cream","happiness, hunger, sadness","Salad, pasta, and ice cream","All of the food groups(carbs, veggies, fruits,etc)",Italian
1,2,190,420,900,610,500,725,2,1,2,1,2,1,1,2,softball and basketball,"chicken fingers, pasta, pizza","I eat fruits, dairy and carbs ",a colorful diet,convenience food,"cake, French fries, chicken nuggets","boredom, sadness","steak, mashed potatoes, vegetables ",all elements of food pyramid,Italian
1,1,170,315,575,265,345,580,1,2,2,1,1,1,1,2,wrestling,spaghetti and tacos,I eat two-tree meals per day. Always eat a breakfast.,A good breakfast. A healthy lunch and dinner.,Food is not as healthy.,"pizza, ice cream, cookies",boredom,"pizza, tacos, pasta",lots of colors,Italian
1,nan,127,420,1315,430,690,940,1,2,1,1,1,1,1,2,Marching Band,Spaghetti or  chicken panini sandwich,I eat healthy as well as unhealthy. I try to keep a balanced diet but often eat junk food with friends.,Delicious but also very healthy for you. Low in carbs but does not delete carbs all together.,Eating at Egan or the laker has definitely made me gain weight because every time I go home and eat I lose weight.,"Mashed potatoes, pasta","Boredom, sadness, or with friends ","Spaghetti con Chorizo, Carne Asada, Salmon",Has fruits vegetables and or some type of meat,Any type of Colombian cuisine
1,2,167,420,760,720,690,725,1,2,2,1,1,1,1,1,Collegiate Water Polo,Spaghetti and Pop-tarts,I eat a paleo based diet high in protein and low in fat. I stay away from processed foods as much as I can.,Staying away from processed foods completely and incorporating more plant proteins opposed to meat proteins would be ideals.,"Huge changes have occurred. I eat far healthier, less processed  food, less dense carbohydrates and way more vegetables and fruits.","Pasta dishes, Cheesecake, Pancakes","Sadness, Loneliness, Boredom","Stuffed chicken breasts, spagetti carbonara, breakfast for dinner ",Mostly vegetables and plenty of lean protein and healthy fats to keep you full,Mexican cuisine
1,2,140,315,760,265,500,580,1,2,2,1,1,1,2,1,None right now,"Pasta, breakfast for dinner, pizza",I try to eat something light for breakfast like cereal or an apple. For lunch I eat sandwiches or pasta also something somewhat light and I eat however much I'm hungry for at dinner. Sometimes I try to be healthy with a salad or something and then I get dessert,"Healthy smoothies for breakfast, healthy sandwich for lunch. For dinner, something wholesome and also healthy. Then a light dessert.",I eat way too often and way too much x,"Ice cream, pizza, cookies",Mostly Stress,"Pasta, breakfast for dinner, pizza","Lots of Greens, meat and water",Asian
1,1,190,420,900,610,500,580,1,2,2,1,1,1,1,1,"volleyball, lacrosse","peanut butter and jelly, celery and peanut butter, hot pockets ",Eat fruits and vegetables daily and with almost every meal. Diet mostly consists of meat as well.,More organic food. Want to try and add more seafood into my diet.,Less snacking,"Chinese food, moes, sponge candy, homemade lasagne ","boredom, sadness ","Pizza, Chicken and rice and pasta",Small portion of meat with majority fruits or vegetables,Chinese food
2,1,155,420,1315,720,690,1165,1,1,2,1,1,1,1,1,field hockey,pizza,I try to eat healthy but sometimes drink soda pop and I enjoy desserts. harder to eat healthy when I am at school.,Eating healthy with lots of water and natural foods.,"less healthy because of less options, money and time.","pizza, pasta, mac and cheese",when i am sad or craving,"Pasta, pizza, and chicken",lots of variety and veggies,mac and cheese
2,1,175,980,1315,720,850,1165,2,2,2,1,1,1,2,1,nan,"Quesadilla, chocolate, steak",High protein and high carbs with fruits and vegetables as needed,Same as current diet,Willingly eating vegetables,"Little Debbie snacks, donuts, pizza",None,"burritos, pasta, chicken","High protein, high carbs , vegetables ",Mexican
1,1,129,420,900,610,500,1165,1,2,1,2,1,1,2,1,none,"Jollof Rice, Bread, pasta ","i currently eat a lot of salad, but do not eat 3 times a day nor eat breakfast ",it would be a vegetarian diet without any red meat,I have been eating healthier especially vegetables and proteinous food,"carrots, plantain chips, almonds, popcorn ","stress, boredom, college as whole ","Rice with vegetables, chicken with pasta, salad","Healthy meal for me is a food rich in protein, fiber, some sort of carbohydrates",Authentic Chinese and Vietnamese food
2,1,260,420,1315,720,850,1165,1,2,2,1,2,1,1,1,Fotball,"Chinese food, pizza, chicken adobo",I used to eat whatever but since i've come to college i try to eat fruits and vegetables everyday. I also avoid fried foods.,"My ideal diet would be no processed food or fried food. Also, very low in excess carbs and high in protein.",i eat healthier all around,"chips, ice cream, fruit snacks",boredom,"any Chinese food, pasta, burgers","half a plate of protein, quarter of a plate of carbs and the other quarter fruits or veggies.",italian and chinese
1,2,135,420,900,610,500,725,2,2,2,1,1,2,2,2,crew,"Pasta, chicken, pizza ",I eat very basic foods like pizza and pasta. I don't try many new things.,Ideally I would eat more fruits and vegetables in my diet along with some junk food.,"Home cooked meals and a lot more difficult to have at college. It's typically quick, on the go foods. ","Macaroni and cheese, chicken noodle soup, pizza",Boredom and stress,"Pasta, chicken, pizza ",Very colorful and smaller portions of the unhealthy food with larger portions of vegetables,American
2,2,190,420,900,720,690,1165,2,2,2,1,1,1,1,2,"Football, Basketball, Volleyball, Golf","Steak, Chicken Tenders, Pizza",My diet consists of high levels of meats with some vegetables. Coexisting with varying levels of sugars,A balance between meats and vegetables with less sugar,I have increased the amounts of vegetables I eat due to the unhealthy options in our dining halls,"Chocolate, Chips, Ice cream, French Fires, Pizza","Stress, sadness, boredom","Chicken, Pork Chops, Steak",Chicken Salad with Pita Chips,Barbecue
2,1,165,420,1315,720,690,1165,1,2,2,1,1,1,2,2,nan,"Spaghetti, Italian potato soup",Very poor. Heavy carb consumption.,"Alot of fruits and veggies. Meat and bread. Water, because hydration is important kids",I eat alot of carbs and eat much more frequently,"Mac and cheese, lasagna, Chinese food ","Boredom, sadness","Salmon, hamburger surprise, Italian potato soup","Fruits, vegetables, meat ",Italian
2,2,175,420,1315,610,690,940,1,2,2,1,1,1,1,1,"hockey, soccer, golf","steak, spaghetti, salmon",Complete diet. protein vegetables and carbs,High protein with lots of vegetables and fruit,I eat whatever is offered at egan or at the laker,"candy, Chinese, mcdonalds",laziness and hungover,"salmon, steak, spaghetti squash",steak or salmon with broccoli or asparagus and brown rice or quinoa,lebanese or greek
2,2,184,420,1315,265,690,1165,1,2,2,1,2,1,1,2,Wrestling,Macaroni and Cheese,"I eat usually 2 times a day, either breakfast and dinner or lunch and dinner.  I feel that is enough for me.",I like the diet I have now.  I could eat 3 times a day but I feel healthy as is.,Food is readily available so I don't have to cook so it's easier to eat a lot.,"Doritos, mac and cheese, ice cream","Boredom, hunger, snacking.","Pasta, fish, steak",a balance of Meat and vegetables,American
2,1,210,420,900,430,500,725,1,2,2,1,1,1,2,1,Soccer,Pizza,Currently whatever Egan has at the moment.,"Variety of fruits, vegetables, and meats in healthy proportion.",I've eaten more fruits and vegetables. Started eating seafood.,"Ice cream, cake, pop, pizza, and milkshakes.","Happiness, sadness, celebration.","Pizza, chicken, pasta",Modest proportions of many different food groups.,Italian
1,1,155,420,760,720,500,1165,1,2,2,1,1,1,1,2,Running,"Chicken Parm, Spaghetti, and Grilled Cheese",I try to maintain a healthy diet. I always try to eat foods that are beneficial to my health and that will impact me in the long run.,"I want to aim to eat foods that are healthy and nutritious. Since I workout a lot, I want to eat foods that will replenish the nutrients my body needs in order to function. ",Coming to college I definitely have tried to change my eating habits in order to maintain my weight and be more healthy.,"Mac and Cheese, Pizza, Ice Cream and French Fries ","Boredom, anger and just being hungry in general.","Chicken Parm, Baked Ziti, Shrimp Alfredo ",It combines a protein with other elements of the diet such as vegetables and other items that support the body.,Italian
2,2,185,315,1315,720,690,1165,1,1,2,1,1,4,1,1,Tennis,"Chicken parmigiana, wedding soup, pasta",Somewhat unhealthy. This is due to my hectic work and school schedule.,My ideal diet would be one that is well balanced. It would include lots of fruits and vegetables.,When I was on campus (which I am not anymore) I ate way more fruits and vegetables since I had easy access to them.,"Soup, pasta, cake","Depression, comfort, accessibility ","Chicken parmigiana, pasta, wedding soup","Well balanced with protein, fruits, vegetables, starch, etc.",Italian
1,2,165,420,900,430,690,1165,1,1,1,1,1,1,1,1,softball,"chicken, macaroni & cheese, cheesy potatoes","i drink alot of lemon water, and milk. i also eat ice cream frequently after dinner. but i also eat lots of fruits and veggies",ideal diet would be less sweets and carbohydrates.,eat more salads,"mac & cheese, frosted brownies, chicken nuggs","they are yummy, my boyfriend sometimes makes me sad, boredom","chicken alfredo, chicken parmesan, spaghetti","lean meat, fresh fruits & veggies",italian
1,2,125,nan,900,610,500,nan,1,2,1,1,1,1,1,2,"Volleyball, Track","Spaghetti, Tuna noodle casserole, Italian sausage",I typically eat very healthy. i consume fruits and vegetables in about every meal.,"Although I don't eat junk food very often, i would love not to have those days where I eat a lot. ",I consume a lot more grapefuit since I've come to college. The meals here are also more greasy than I am used to.,"watermelon, grapes, ice cream","Sad, bored, excited","spaghetti, steak, lasagna ","water, fruits, vegetables, protein, carbs",Italian
1,1,160,420,1315,610,500,1165,1,2,2,1,1,1,2,2,nan,"chicken nuggets, macaroni and cheese",At this time it is very touch and go. Some days I live on sandwiches and ice cream while other days I eat lots of fruits and vegetables.,"If at all possible, I would like to be able to eat a lot healthier. I would like to eat more fruits and vegetables with the hope of eventually going vegetarian.",I eat a lot more carbs than I did when I lived at home.,"macaroni and cheese, stuffed peppers, hamburgers, french fries","boredom, stress, mood swings",nan,More vegetables and fruits as opposed to meat and bread/potatoes,sushi
1,1,135,420,900,610,500,940,1,2,2,1,1,1,2,1,nan,Pizza,"A very healthy diet. Avoiding junk foods, and any white breads. ","A very healthy diet, with the occasional splurging on junk foods. ","Avoiding ""easy options"" such as junk foods ","Pizza, mashed potatoes, spaghetti","Anger, sadness",nan,"A protein, veggies, and a carb",Italian
1,1,130,420,760,610,345,725,1,2,1,1,1,1,2,1,"When I can, rarely though play pool, darts, and basketball.",Tortellini and Broccoli with parmesan cheese and homemade breaded chicken with sweet potato,I have been eating mainly proteins and some fruits and vegetables every day with some less healthy snack foods.,"I would like my diet to fulfill all the colors of the rainbow, with mainly fruits and vegetables as the primary source of intake, and about one fourth intake of proteins, and little to no snacks per day.  ","Coming to college I have ate less well colored meals each day due to lack of income and desire to save money. I used to eat more fruits and vegetables, more chicken and salmon, now these habits have lightened up and are not as frequent and regular in the week. I have also started eating more bread and dairy products.","dark chocolate, terra chips, reese's cups(dark chocolate), and bread/crackers with cottage cheese","Anxiousness, watching TV I desire ""comfort food"" ","Spaghetti and pasta, seasoned salmon with steamed or boiled broccoli, or soup with ritz crackers if I was busy that day.","Salmon, sweet potato, and larger portion, but equally spread of broccoli, squash, zucchini, carrots, and tomatoes.",Indian food
1,1,230,420,1315,720,690,940,1,2,2,1,2,1,2,1,None at the moment,"Chicken Marsala, Manicotti, Mashed Potatoes","High in carbs, but I have recently tried to cut down on fats, salt, and sugars. I choose more organic options as well as more fruits and vegetables. ","A low car, low fat diet with no red meat and lots of plant-based things. I would like to cut red meat out entirely and also cut down on processed snack foods. ",I've definitely gotten used to eating more often since I have a fully cooked meal available to me at all the time.  Sometimes I would only eat one full meal and a snack in high school because I was so busy and did not have the time to cook.,"Chips, chocolate, ,mozzarella sticks ","Boredom, sadness, anxiety","Pasta, Burgers and Fries, Chicken Marsala","Vegetables, white meat, and a starch like potatoes, water, and fruit for dessert ",Italian
1,2,125,420,1315,720,690,1165,1,2,2,1,2,2,1,2,volleyball,"hot dogs, chicken fingers, mashed potatoes","Since I am a college student I rarely cook full meals with protein, vegetables and starch. I usually just heat up leftovers from a restaurant or go eat casual food at the dining hall.","My ideal diet right now would be how it was when I lived at home. I ate breakfast every morning, brought a lunch to school, and had a home cooked meal by my mom that included meat, vegetables and a starch. ",I do not eat full meals. Rarely eat 3 meals a day.,"ice cream, chips, candy","Boredom, laziness, anger","Chicken rice and asparagus, pizza, something easy in the crockpot","I think a healthy meals includes some kind of protein, preferably meat, vegetables, and a starch such as potatoes or rice",Italian
1,1,130,315,760,430,500,580,1,2,1,1,1,1,2,2,None,"Chicken Biryani, Dad's burgers, Chicken curry","It is pretty balanced with a diverse mixture of proteins, carbohydrates, vitamins and minerals. Fruits and chicken dominate my diet. ",My ideal diet would getting to eat small portioned meals in every 2-3 hours.,"I have been drinking more water. Since college, I've been more conscious about my diet and incorporated more fruits on my diet. ","Pizza, soda, chocolate brownie, chicken tikka masala and butter naan ",Stress and sadness,"Marinated nuts, prawn crackers, drink of their choice, mixed veggie crackers
Rice, chicken curry, lentil, pickle, potato kebab
Lemon Meringue Pie",A healthy meal constitutes of balanced diet with fruits and veggies dominating the plate.,Nepali
1,1,165,420,900,430,690,1165,1,1,1,1,1,1,2,2,I used to play softball,dino chicken nuggets,I try to eat a balanced meal. I refrain from anything too fatty.,I would like to try to eat vegan.,My diet could improve now. I have been eating more than I should.,"Chocolate, Pasta, Cookies","I am always stressed out, and bored when I am in my apartment. ","Pasta, Croque Madam, chicken ",To me a healthy meal is balanced and,I really love italian food and thai food
1,2,128,420,760,430,345,580,1,2,2,1,1,1,1,2,Ice hockey,Spaghetti and chicken parm,moderately health conscious,"Small portions, healthy foods",Late night snacking,"Candy, salty snacks, toast","Stress, sadness, boredom","Steak, salmon, chicken parm","equal portions of carbs, proteins and fruits/veges",Italian
1,1,200,420,1315,610,690,940,1,2,2,1,1,1,2,1,None,Chicken parm.,"protein, carbs, less fruits and vegetables, some sweets ",Much more vegetables and lean protein,I snack less and eat smaller portions,"Mac in cheese, pizza, mozzarella sticks ","Stress, frustration, self-consciousness ","Spaghetti, Grilled Chicken, Pizza ",Salad with chicken and vegetables with a raspberry vinaigrette,Italian
1,2,160,315,900,610,690,580,1,1,1,1,1,2,1,2,Volleyball,Spaghetti,I eat at least 2 times a day at the universities dining places. I also sometimes cook myself and try to eat healthy a majority of the time.,I hope to continue to eat healthy and cook more on my own. I want to incorporate more fruits and vegetables.,I eat out more.,"Ice-cream, pizza, chocolate",Sadness and cravings,"Grilled chicken, Spaghetti, Alfredo ","It includes a protein, vegetable, fruit, and grain. ",Italian
2,1,170,980,1315,265,345,725,1,2,2,1,1,3,2,2,nan,"Pizza, Pita, Lasagna",some healthy food and also some not so healthy.,more healthy food such as vegetables than bad food such as burgers.,more healthy food,"snacks, chips, ",boredom,nan,low calories plenty of veggies,nan
1,2,129,315,900,610,500,725,1,2,1,1,1,1,2,2,nan,"Mac & Cheese, Chicken, Stir Fry ",I eat a lot of proteins and fruit and vegetables. I try to stay away from carbohydrates and sugary foods.,I wouldn't want or crave any sweets or breads.I would be satisfied with protein and fruit and veggies.,I had to change a lot. I keep track of calories and cut out most breads and wraps.,"Chocolate, Ice cream, pizza","Sadness, happiness and boredom","Dinner, Lunch, Dessert ",A pice of meat such as chicken with a side of vegetables and possibly a salad,Italian
1,2,170,420,900,430,690,1165,1,1,2,1,1,1,2,2,None,Mac and Cheese,"My current diet would be considered a ""college diet"". I eat a lot of pizza and ramen noodles. ",My ideal diet would be a healthy diet. I would eat meats and veggies.,They have gotten very bad. I eat a lot more food that I know I should not eat.,"ice cream, pizza, Chinese food ",Boredom and sadness,"Beef Stroganoff, Chicken and Mashed Potatoes, Tacos ","Blackened Chicken, broccoli, and milk",Italian
2,2,138,315,760,610,850,940,1,2,2,1,1,1,1,2,"Tennis, Basketball","Dumplings, Chicken Curry and Pizza",Not very healthy,Healthy and tasty,not eating meals on time,"Burgers, indian and korean food
","sadness, happiness and hunger","Meat, meat and meat","Meat, greens and food containing protein",Korean
2,2,150,980,1315,610,690,1165,1,2,2,1,1,1,1,2,Hockey,"Pasta, Pizza, Popcorn",I currently eat an abundance of carbohydrates. I have a low intake of protein. I overly intake calcium.,"My ideal diet would be an equal balance of all the food groups. I would like to eat more protein. Also, i would prefer to cut back on the junk food.",Eating more dairy due to more ice cream intake.,"chocolate bar, ice cream, pretzels, potato chips and protein bars.","Stress, boredom and physical activity","Pasta, Chicken, Pizza",Intaking the proper amount of each food group,I do not like cuisine
1,1,170,420,1315,610,345,725,1,2,1,1,1,1,2,1,none,"Fry Chicken, Rice Vegetable","It is very unbalance. Mostly fat food, Lack of vegetables.",Very healthy. Freshly done. properly cooked,less vegetable more sweats,"Ice cream, chocolate, pizza, cucumber ","loneliness, homework, boredom ","Rice and Peas and Chicken, Jerk Chicken and Shrimp",BBQ Chicken with mash sweat potatoes and steam vegetable with corn and a glass of water.,Chinese
1,1,113,315,760,610,690,725,1,2,1,1,1,1,2,1,"No, I don't play sport.","Noodle, Wings, and Tiramisu",I eat in dining hall of school everyday. I usually have both meat and a little vegetable in every meal.,My ideal diet should include both vegetable and meat. It is not only healthy but also delicious.,"I eat more vegetable. Since coming to college, I started to eat salads and tried to eat salads at least three times a week.","Noodle ( any kinds of noodle), Tuna sandwich, and Egg.
",When i'm  eating with my close friends/ Food smell or look good/ when I feel tired,"Vietnamese fried rolls, Pho, Some kinds of noodles.",Including both vegetable and meat,Vietnamese cuisine
1,2,140,420,1315,430,345,940,1,1,1,1,1,3,2,2,None,Chinese,Try to eat as healthy as possible. A few days where fast food comes into play because of classes.,All home cooked. Healthy. Vegetables and fruit.,I try to eat more fruits and vegetables,"Chinese, chips, cake",Stress and boredom,Chinese tacos or pasta,Chicken vegetables and fruit for dinner,American
2,2,185,420,1315,610,690,1165,1,2,1,1,1,1,1,2,Soccer,"pizza, burger, pasta","My diet is mostly whatever I get to eat in the grotto commons. Sometimes, I eat outside",Healthy balanced diet that tastes well.,Started eating a lot of protein rich food that i didnt before.,"chips, rice, chicken curry,","Happiness, boredom, social event","Chicken, Rice, Vegetables",A diet that is well balanced in most of the nutrients needed for the body.,Indian
1,1,156,420,1315,610,500,940,1,2,2,1,1,3,1,1,Softball,Stromboli Mac and Cheese and Pizza,"My diet consists mainly of coffee, water, fruits, vegetables, and chicken. I tend to stay away from bread and pasta as much as possible. ","My ideal diet would consist of a majority of what I consume now. I like to think I make pretty healthy choices currently, so it would most likely remain the same.","I have noticed there is less time for a prepared meal, so quick and easy has become the norm.","wine. mac and cheese, pizza, ice cream ",boredom and sadness,"pasta, fish, steak",mainly protein and vegetables with a complex carb,Italian
1,1,180,315,1315,265,500,940,1,2,1,1,1,1,nan,2,basketball,"Isombe , Plantains and Ugali",A college student with an imbalanced diet trying to be healthy.,Eating home cooked meals everyday and being able to not eat processed foods at all.,Eating Pizza as an excuse when there is nothing else to it.,Pizza / Wings / Cheesecake,Loneliness / Homesick / Sadness,"Fried Rice 
Baked potatoes 
Curry Chicken","A healthy meal is a variety of food , organic food that gives you the nutrients such as protein , carbohydrates , fat , water , vitamins and minerals.",Mexican Food
1,1,120,420,1315,720,690,580,1,1,1,1,1,1,2,2,none,Rice and potato,"Rice, oatmeal, and tea",lots of veggies,less rice,"rice, potato, seaweed soup",sadness,"meat, rice, kimchi",lots of vegetables,Korean
2,1,135,420,1315,720,500,940,1,1,2,1,2,1,2,1,nan,pizza and spaghetti,"I try to eat as healthy as possible everyday.  I have fruit, yogurt and a protein shake everyday.  The other foods i eat vary on a day to day basis.",My ideal diet is the diet i am currently on.  The only thing i would change is a little bit less snack/junk food.,I don't eat as much on a daily basis since coming to college.,"Mac n Cheese, Lasagna, Pizza","happiness, they are some of my favorite foods","Pizza, Spaghetti, Baked Ziti","A protein, a fruit, a starch, and a salad or some sort of vegetable.",Italian
1,2,135,315,575,430,345,725,1,2,1,1,1,1,2,2,nan,"rice, beans, and chicken / pizza/ tenders",high in protein and low in carbohydrates.,"Being able to balance between sweets, vegetables, fruits, carbohydrates, and fat.",I have learned to eat more vegetables.,"Chocolates, pizza, and Ritz.","hormones, Premenstrual syndrome.","Vegetables, Meat, and rice.","a cup of rice, vegetables, and meat. ",HISPANIC CUISINE.